Project example: Exploring CO2 emissions across time
…
Methods

Data Wrangling

I first wrangled each dataset to meet “tidy data” requirements and created or recoded variables to enable joining with the other datasets. The global co2_emissions, gdp_growth, and energy_use were all formatted similarly, so I applied the same wrangling procedure to each dataset. I used pivot_longer to pivot from wide to long format and ensured that variables were of appropriate types.

co2_long <- co2_emissions  |>
  pivot_longer(cols = -country,
               names_to = "year",
               values_to = "emissions") |>
  mutate(year = as.numeric(year))

co2_long

# A tibble: 50,688 × 3
   country      year emissions
   <chr>       <dbl>     <dbl>
 1 Afghanistan  1751        NA
 2 Afghanistan  1752        NA
 3 Afghanistan  1753        NA
 4 Afghanistan  1754        NA
 5 Afghanistan  1755        NA
 6 Afghanistan  1756        NA
 7 Afghanistan  1757        NA
 8 Afghanistan  1758        NA
 9 Afghanistan  1759        NA
10 Afghanistan  1760        NA
# ℹ 50,678 more rows

energy_use_long <- energy_use |>
  pivot_longer(cols = -country,
               names_to = "year",
               values_to = "energy_use") |>
  mutate(year = as.numeric(year)) |>
  filter(year < 2015)

energy_use_long

# A tibble: 9,295 × 3
   country  year energy_use
   <chr>   <dbl>      <dbl>
 1 Albania  1960         NA
 2 Albania  1961         NA
 3 Albania  1962         NA
 4 Albania  1963         NA
 5 Albania  1964         NA
 6 Albania  1965         NA
 7 Albania  1966         NA
 8 Albania  1967         NA
 9 Albania  1968         NA
10 Albania  1969         NA
# ℹ 9,285 more rows

The us_disasters dataset contains annual counts of 7 different disasters, including droughts, floods, freezes, severe storms, tropical cyclones, wildfires, and winter storms as well as simulated economic costs of each disaster type and economic model error estimates. For the sake of simplicity, I selected only disaster counts using the select() and contains() functions in the dplyr package. I then summed the total number of disasters for each year using the the base R rowSums() function and added this new variable directly to the us_disaster tibble by using the mutate() function of dplyr and using the . notation. In addition, I added a new variable called country to indicate that this data is from the United States and an indicator variable to indicate that the variable of interest is disasters for later joining with global data.

disasters <- us_disaster |>
           select(year, contains("count")) |>
  mutate(disasters = rowSums(across(drought_count:winter_storm_count))) |>
  select(year, disasters) |>
  mutate(country = "United States") |>
  pivot_longer(cols = c(-country, -year),
               names_to = "indicator",
               values_to = "value")

disasters

# A tibble: 40 × 4
    year country       indicator value
   <dbl> <chr>         <chr>     <dbl>
 1  1980 United States disasters     3
 2  1981 United States disasters     2
 3  1982 United States disasters     3
 4  1983 United States disasters     5
 5  1984 United States disasters     2
 6  1985 United States disasters     5
 7  1986 United States disasters     2
 8  1987 United States disasters     0
 9  1988 United States disasters     1
10  1989 United States disasters     5
# ℹ 30 more rows

The us_temperature dataset was already in tidy format, but I recoded date to remove the “12” from the end of each value, renamed the date variable to year, removed the anomaly variable, and, as with the disasters dataset, created country and indicator variables.

temp <- us_temperature |>
  mutate(date = str_sub(date, start = 1, end = 4)) |>
  select(-anomaly) |>
  mutate(country = "United States",
         year = as.numeric(date),
         indicator = "temperature") |>
  select(year, country, indicator, value)

temp

# A tibble: 125 × 4
    year country       indicator   value
   <dbl> <chr>         <chr>       <dbl>
 1  1895 United States temperature  50.3
 2  1896 United States temperature  52.0
 3  1897 United States temperature  51.6
 4  1898 United States temperature  51.4
 5  1899 United States temperature  51.0
 6  1900 United States temperature  52.8
 7  1901 United States temperature  51.9
 8  1902 United States temperature  51.6
 9  1903 United States temperature  50.6
10  1904 United States temperature  51.2
# ℹ 115 more rows

After wrangling the individual datasets, I used the full_join function to merge the global datasets, and then used pivot_longer() to pivot to long format.

global_data <- co2_long |>
  full_join(energy_use_long) |>
  pivot_longer(cols = c(-year, -country),
               names_to = "indicator",
               values_to = "value") |>
  select("year", everything()) |>
  mutate(year = as.numeric(year))

global_data

# A tibble: 101,376 × 4
    year country     indicator  value
   <dbl> <chr>       <chr>      <dbl>
 1  1751 Afghanistan emissions     NA
 2  1751 Afghanistan energy_use    NA
 3  1752 Afghanistan emissions     NA
 4  1752 Afghanistan energy_use    NA
 5  1753 Afghanistan emissions     NA
 6  1753 Afghanistan energy_use    NA
 7  1754 Afghanistan emissions     NA
 8  1754 Afghanistan energy_use    NA
 9  1755 Afghanistan emissions     NA
10  1755 Afghanistan energy_use    NA
# ℹ 101,366 more rows
…
