Iteration
…
df |> 
  summarize(
    across(everything(), median)
  )

# A tibble: 1 × 4
      a      b      c     d
  <dbl>  <dbl>  <dbl> <dbl>
1 0.680 -0.166 0.0633 0.106

Use where() to select colunns by data type

For more dataframes with multiple data types, use where() to apply across() functions to certain types of data. 

# A tibble: 53,940 × 7
   carat cut       color clarity depth table price
   <dbl> <ord>     <ord> <ord>   <dbl> <dbl> <int>
 1  0.23 Ideal     E     SI2      61.5    55   326
 2  0.21 Premium   E     SI1      59.8    61   326
 3  0.23 Good      E     VS1      56.9    65   327
 4  0.29 Premium   I     VS2      62.4    58   334
 5  0.31 Good      J     SI2      63.3    58   335
 6  0.24 Very Good J     VVS2     62.8    57   336
 7  0.24 Very Good I     VVS1     62.3    57   336
 8  0.26 Very Good H     SI1      61.9    55   337
 9  0.22 Fair      E     VS2      65.1    61   337
10  0.23 Very Good H     VS1      59.4    61   338
# ℹ 53,930 more rows
…
Intro to purrr:map(): reading and writing multiple files

Reading in multiple files the slow, error-prone way

First read in each file and assign the output to a different object:

ph_a <- read_csv("data/sitenames/2024-05-21_YOR_BR_PH_A.csv")
ph_b <- read_csv("data/sitenames/2024-05-21_YOR_BR_PH_B.csv")
ph_c <- read_csv("data/sitenames/2024-05-21_YOR_BR_PH_C.csv")
ph_d <- read_csv("data/sitenames/2024-05-21_YOR_BR_PH_D.csv")
ph_e <- read_csv("data/sitenames/2024-05-21_YOR_BR_PH_E.csv")

ph_a

# A tibble: 61 × 3
   datetime         ph site 
   <chr>         <dbl> <chr>
 1 5/21/24 9:50   8.05 a    
 2 5/21/24 9:55   8.06 a    
 3 5/21/24 10:00  8.01 a    
 4 5/21/24 10:05  8.05 a    
 5 5/21/24 10:10  8.03 a    
 6 5/21/24 10:15  8.05 a    
 7 5/21/24 10:20  8.05 a    
 8 5/21/24 10:25  8.03 a    
 9 5/21/24 10:30  8.03 a    
10 5/21/24 10:35  8.03 a    
# ℹ 51 more rows

Reading in multiple files the slow, error-prone way

Then combine the dataframe objects into a tibble using bind_rows()

data <- bind_rows(ph_a, ph_b, ph_c, ph_d, ph_e)

data

# A tibble: 305 × 3
   datetime         ph site 
   <chr>         <dbl> <chr>
 1 5/21/24 9:50   8.05 a    
 2 5/21/24 9:55   8.06 a    
 3 5/21/24 10:00  8.01 a    
 4 5/21/24 10:05  8.05 a    
 5 5/21/24 10:10  8.03 a    
 6 5/21/24 10:15  8.05 a    
 7 5/21/24 10:20  8.05 a    
 8 5/21/24 10:25  8.03 a    
 9 5/21/24 10:30  8.03 a    
10 5/21/24 10:35  8.03 a    
# ℹ 295 more rows
…
List files in a directory

class(paths)

[1] "character"

The output is a character vector of file names (with full directory structure included).

Use map() to read in each element of the paths vector

files <- map(paths, read_csv)

files[[1]]

# A tibble: 61 × 3
   datetime         ph site 
   <chr>         <dbl> <chr>
 1 5/21/24 9:50   8.05 a    
 2 5/21/24 9:55   8.06 a    
 3 5/21/24 10:00  8.01 a    
 4 5/21/24 10:05  8.05 a    
 5 5/21/24 10:10  8.03 a    
 6 5/21/24 10:15  8.05 a    
 7 5/21/24 10:20  8.05 a    
 8 5/21/24 10:25  8.03 a    
 9 5/21/24 10:30  8.03 a    
10 5/21/24 10:35  8.03 a    
# ℹ 51 more rows
…
[1] "list"

Recall, a list is a vector of data elements. Each element of the list can be anything - a single observation, a vector, a data frame, a plot, etc.

files is a list of data frames.

We can extract an element of a list using [[]]. We place the element number inside the brackets files[[3]].

Use list_rbind() to collapse list elements into a single data frame

files |> 
  list_rbind()

# A tibble: 305 × 3
   datetime         ph site 
   <chr>         <dbl> <chr>
 1 5/21/24 9:50   8.05 a    
 2 5/21/24 9:55   8.06 a    
 3 5/21/24 10:00  8.01 a    
 4 5/21/24 10:05  8.05 a    
 5 5/21/24 10:10  8.03 a    
 6 5/21/24 10:15  8.05 a    
 7 5/21/24 10:20  8.05 a    
 8 5/21/24 10:25  8.03 a    
 9 5/21/24 10:30  8.03 a    
10 5/21/24 10:35  8.03 a    
# ℹ 295 more rows

Put it all together

ph <- list.files("data/sitenames", full.names = TRUE) |> 
  map(read_csv) |> 
  list_rbind()

ph

# A tibble: 305 × 3
   datetime         ph site 
   <chr>         <dbl> <chr>
 1 5/21/24 9:50   8.05 a    
 2 5/21/24 9:55   8.06 a    
 3 5/21/24 10:00  8.01 a    
 4 5/21/24 10:05  8.05 a    
 5 5/21/24 10:10  8.03 a    
 6 5/21/24 10:15  8.05 a    
 7 5/21/24 10:20  8.05 a    
 8 5/21/24 10:25  8.03 a    
 9 5/21/24 10:30  8.03 a    
10 5/21/24 10:35  8.03 a    
# ℹ 295 more rows

What if you need to extract data from the file name

e.g., we have another dataset where there is no site name column, but the site name is contained in the file names.

list.files("data/no_sitenames", full.names = TRUE) |> 
  map(read_csv) |> 
  list_rbind()

# A tibble: 305 × 2
   datetime         ph
   <chr>         <dbl>
 1 5/21/24 9:50   8.05
 2 5/21/24 9:55   8.06
 3 5/21/24 10:00  8.01
 4 5/21/24 10:05  8.05
 5 5/21/24 10:10  8.03
 6 5/21/24 10:15  8.05
 7 5/21/24 10:20  8.05
 8 5/21/24 10:25  8.03
 9 5/21/24 10:30  8.03
10 5/21/24 10:35  8.03
# ℹ 295 more rows
…
The full file paths are vector elements. The “basenames” above are the names of each element.

Use set_names() to extract info from the file names

Now use map to read in the data files

list.files("data/no_sitenames", full.names = TRUE) |> 
  set_names(basename) |> 
  map(read_csv)

$`2024-05-21_YOR_BR_PH_A.csv`
# A tibble: 61 × 2
   datetime         ph
   <chr>         <dbl>
 1 5/21/24 9:50   8.05
 2 5/21/24 9:55   8.06
 3 5/21/24 10:00  8.01
 4 5/21/24 10:05  8.05
 5 5/21/24 10:10  8.03
 6 5/21/24 10:15  8.05
 7 5/21/24 10:20  8.05
 8 5/21/24 10:25  8.03
 9 5/21/24 10:30  8.03
10 5/21/24 10:35  8.03
# ℹ 51 more rows

$`2024-05-21_YOR_BR_PH_B.csv`
# A tibble: 61 × 2
   datetime         ph
   <chr>         <dbl>
 1 5/21/24 9:50   8.06
 2 5/21/24 9:55   8.07
 3 5/21/24 10:00  8.03
 4 5/21/24 10:05  8.07
 5 5/21/24 10:10  8.06
 6 5/21/24 10:15  8.07
 7 5/21/24 10:20  8.07
 8 5/21/24 10:25  8.04
 9 5/21/24 10:30  8.05
10 5/21/24 10:35  8.05
# ℹ 51 more rows

$`2024-05-21_YOR_BR_PH_C.csv`
# A tibble: 61 × 2
   datetime         ph
   <chr>         <dbl>
 1 5/22/24 9:50   7.03
 2 5/22/24 9:55   7.02
 3 5/22/24 10:00  7.02
 4 5/22/24 10:05  7.02
 5 5/22/24 10:10  7.01
 6 5/22/24 10:15  7.01
 7 5/22/24 10:20  7.01
 8 5/22/24 10:25  7.01
 9 5/22/24 10:30  7.01
10 5/22/24 10:35  7   
# ℹ 51 more rows

$`2024-05-21_YOR_BR_PH_D.csv`
# A tibble: 61 × 2
   datetime         ph
   <chr>         <dbl>
 1 5/21/24 9:50   7.98
 2 5/21/24 9:55   8.02
 3 5/21/24 10:00  7.97
 4 5/21/24 10:05  8.03
 5 5/21/24 10:10  7.99
 6 5/21/24 10:15  8.02
 7 5/21/24 10:20  8.04
 8 5/21/24 10:25  7.99
 9 5/21/24 10:30  8   
10 5/21/24 10:35  8.01
# ℹ 51 more rows

$`2024-05-21_YOR_BR_PH_E.csv`
# A tibble: 61 × 2
   datetime         ph
   <chr>         <dbl>
 1 5/21/24 9:50   8.03
 2 5/21/24 9:55   8.06
 3 5/21/24 10:00  8.01
 4 5/21/24 10:05  8.06
 5 5/21/24 10:10  8.03
 6 5/21/24 10:15  8.05
 7 5/21/24 10:20  8.06
 8 5/21/24 10:25  8.03
 9 5/21/24 10:30  8.01
10 5/21/24 10:35  8.01
# ℹ 51 more rows

The output shows the first element of the files list.

The “name” of the first element is the name of the first .csv file that was read in.

Use set_names() and mutate() to extract info from the file names

Use the names_to argument in list_rbind() to create a site column that is populated with the corresponding list element names

list.files("data/no_sitenames", full.names = TRUE) |> 
  set_names(basename) |> 
  map(read_csv) |> 
  list_rbind(names_to = "site")

# A tibble: 305 × 3
   site                       datetime         ph
   <chr>                      <chr>         <dbl>
 1 2024-05-21_YOR_BR_PH_A.csv 5/21/24 9:50   8.05
 2 2024-05-21_YOR_BR_PH_A.csv 5/21/24 9:55   8.06
 3 2024-05-21_YOR_BR_PH_A.csv 5/21/24 10:00  8.01
 4 2024-05-21_YOR_BR_PH_A.csv 5/21/24 10:05  8.05
 5 2024-05-21_YOR_BR_PH_A.csv 5/21/24 10:10  8.03
 6 2024-05-21_YOR_BR_PH_A.csv 5/21/24 10:15  8.05
 7 2024-05-21_YOR_BR_PH_A.csv 5/21/24 10:20  8.05
 8 2024-05-21_YOR_BR_PH_A.csv 5/21/24 10:25  8.03
 9 2024-05-21_YOR_BR_PH_A.csv 5/21/24 10:30  8.03
10 2024-05-21_YOR_BR_PH_A.csv 5/21/24 10:35  8.03
# ℹ 295 more rows

site is too long but we can fix that

Use set_names() and mutate() to extract info from the file names

Use the substr() to extract the 22nd character from the site names

list.files("data/no_sitenames", full.names = TRUE) |> 
  set_names(basename) |> 
  map(read_csv) |> 
  list_rbind(names_to = "site") |> 
  mutate(site = substr(site, 22, 22))

# A tibble: 305 × 3
   site  datetime         ph
   <chr> <chr>         <dbl>
 1 A     5/21/24 9:50   8.05
 2 A     5/21/24 9:55   8.06
 3 A     5/21/24 10:00  8.01
 4 A     5/21/24 10:05  8.05
 5 A     5/21/24 10:10  8.03
 6 A     5/21/24 10:15  8.05
 7 A     5/21/24 10:20  8.05
 8 A     5/21/24 10:25  8.03
 9 A     5/21/24 10:30  8.03
10 A     5/21/24 10:35  8.03
# ℹ 295 more rows

Use separate_wider_delim() to keep and separate all elements of the file names

list.files("data/no_sitenames", full.names = TRUE) |> 
  set_names(basename) |> 
  map(read_csv) |> 
  list_rbind(names_to = "file") |> 
  separate_wider_delim(file, delim = "_", 
                       names = c("date", "river", "salinity", "param", "chamber"))

# A tibble: 305 × 7
   date       river salinity param chamber datetime         ph
   <chr>      <chr> <chr>    <chr> <chr>   <chr>         <dbl>
 1 2024-05-21 YOR   BR       PH    A.csv   5/21/24 9:50   8.05
 2 2024-05-21 YOR   BR       PH    A.csv   5/21/24 9:55   8.06
 3 2024-05-21 YOR   BR       PH    A.csv   5/21/24 10:00  8.01
 4 2024-05-21 YOR   BR       PH    A.csv   5/21/24 10:05  8.05
 5 2024-05-21 YOR   BR       PH    A.csv   5/21/24 10:10  8.03
 6 2024-05-21 YOR   BR       PH    A.csv   5/21/24 10:15  8.05
 7 2024-05-21 YOR   BR       PH    A.csv   5/21/24 10:20  8.05
 8 2024-05-21 YOR   BR       PH    A.csv   5/21/24 10:25  8.03
 9 2024-05-21 YOR   BR       PH    A.csv   5/21/24 10:30  8.03
10 2024-05-21 YOR   BR       PH    A.csv   5/21/24 10:35  8.03
# ℹ 295 more rows

Close - we need to get rid of the “.csv”

Use separate_wider_delim() to keep and separate all elements of the file names

list.files("data/no_sitenames", full.names = TRUE) |> 
  set_names(basename) |> 
  map(read_csv) |> 
  list_rbind(names_to = "file") |> 
  separate_wider_delim(file, delim = "_", 
                       names = c("date", "river", "salinity", "param", "site")) |> 
  mutate(site = substr(site, 1,1))

# A tibble: 305 × 7
   date       river salinity param site  datetime         ph
   <chr>      <chr> <chr>    <chr> <chr> <chr>         <dbl>
 1 2024-05-21 YOR   BR       PH    A     5/21/24 9:50   8.05
 2 2024-05-21 YOR   BR       PH    A     5/21/24 9:55   8.06
 3 2024-05-21 YOR   BR       PH    A     5/21/24 10:00  8.01
 4 2024-05-21 YOR   BR       PH    A     5/21/24 10:05  8.05
 5 2024-05-21 YOR   BR       PH    A     5/21/24 10:10  8.03
 6 2024-05-21 YOR   BR       PH    A     5/21/24 10:15  8.05
 7 2024-05-21 YOR   BR       PH    A     5/21/24 10:20  8.05
 8 2024-05-21 YOR   BR       PH    A     5/21/24 10:25  8.03
 9 2024-05-21 YOR   BR       PH    A     5/21/24 10:30  8.03
10 2024-05-21 YOR   BR       PH    A     5/21/24 10:35  8.03
# ℹ 295 more rows
…
