Data classes
…
Dates and times in R

A date. Tibbles print this as <date>.

A time within a day. Tibbles print this as <time>.

A date-time is a date plus a time: it uniquely identifies an instant in time (typically to the nearest second). Tibbles print this as <dttm>. Elsewhere in R these are called POSIXct, but I don’t think that’s a very useful name.

When you read in data, check data types

flats <- read_csv("data/flats_sub_2015.csv")
flats

# A tibble: 672 × 10
   date   time     datetime depth_m salinity_ppt    ph do_mg_l turb_ntu chl_ug_l
   <chr>  <time>   <chr>      <dbl>        <dbl> <dbl>   <dbl>    <dbl>    <dbl>
 1 7/1/15 00:00:24 7/1/15 …   0.741         0.12  8.53   10.2       1.9      4.3
 2 7/1/15 00:15:24 7/1/15 …   0.706         0.12  8.45    9.91      2        3.8
 3 7/1/15 00:30:24 7/1/15 …   0.687         0.12  8.38    9.68      1.9      4.3
 4 7/1/15 00:45:24 7/1/15 …   0.684         0.12  8.29    9.47      2        4.3
 5 7/1/15 01:00:23 7/1/15 …   0.73          0.12  7.94    8.49      6.1     10.7
 6 7/1/15 01:15:24 7/1/15 …   0.683         0.12  7.67    7.9       6.1     11.6
 7 7/1/15 01:30:24 7/1/15 …   0.664         0.12  7.75    8.07      5.3     20.7
 8 7/1/15 01:45:24 7/1/15 …   0.659         0.12  7.78    8.02      4.8      5.5
 9 7/1/15 02:00:24 7/1/15 …   0.724         0.12  7.81    8         4.5      5.1
10 7/1/15 02:15:24 7/1/15 …   0.782         0.12  7.76    7.88      3.9     27.4
# ℹ 662 more rows
# ℹ 1 more variable: t_c <dbl>

When you read in data, check data types

flats <- read_csv("data/flats_sub_2015.csv") |> 
  print(n = 1)

# A tibble: 672 × 10
  date   time   datetime    depth_m salinity_ppt    ph do_mg_l turb_ntu chl_ug_l
  <chr>  <time> <chr>         <dbl>        <dbl> <dbl>   <dbl>    <dbl>    <dbl>
1 7/1/15 00'24" 7/1/15 0:00   0.741         0.12  8.53    10.2      1.9      4.3
# ℹ 671 more rows
# ℹ 1 more variable: t_c <dbl>
…
ymd_hm("2017-01-31 3:15")

[1] "2017-01-31 03:15:00 UTC"

ymd(20170131)

[1] "2017-01-31"

Coerce flats data into dates and datetimes

flats |> 
  mutate(datetime = mdy_hm(datetime),
         date = mdy(date)) 

# A tibble: 672 × 10
   date       time     datetime            depth_m salinity_ppt    ph do_mg_l
   <date>     <time>   <dttm>                <dbl>        <dbl> <dbl>   <dbl>
 1 2015-07-01 00:00:24 2015-07-01 00:00:00   0.741         0.12  8.53   10.2 
 2 2015-07-01 00:15:24 2015-07-01 00:15:00   0.706         0.12  8.45    9.91
 3 2015-07-01 00:30:24 2015-07-01 00:30:00   0.687         0.12  8.38    9.68
 4 2015-07-01 00:45:24 2015-07-01 00:45:00   0.684         0.12  8.29    9.47
 5 2015-07-01 01:00:23 2015-07-01 01:00:00   0.73          0.12  7.94    8.49
 6 2015-07-01 01:15:24 2015-07-01 01:15:00   0.683         0.12  7.67    7.9 
 7 2015-07-01 01:30:24 2015-07-01 01:30:00   0.664         0.12  7.75    8.07
 8 2015-07-01 01:45:24 2015-07-01 01:45:00   0.659         0.12  7.78    8.02
 9 2015-07-01 02:00:24 2015-07-01 02:00:00   0.724         0.12  7.81    8   
10 2015-07-01 02:15:24 2015-07-01 02:15:00   0.782         0.12  7.76    7.88
# ℹ 662 more rows
# ℹ 3 more variables: turb_ntu <dbl>, chl_ug_l <dbl>, t_c <dbl>
…
What if your data contain year, month, day, etc. in separate columns?

flats2 <- flats |>
  select(date, depth_m) |>
  separate(date, c("year", "month", "day"))
flats2

# A tibble: 672 × 4
   year  month day   depth_m
   <chr> <chr> <chr>   <dbl>
 1 7     1     15      0.741
 2 7     1     15      0.706
 3 7     1     15      0.687
 4 7     1     15      0.684
 5 7     1     15      0.73 
 6 7     1     15      0.683
 7 7     1     15      0.664
 8 7     1     15      0.659
 9 7     1     15      0.724
10 7     1     15      0.782
# ℹ 662 more rows

What if your data contain year, month, day, etc. in separate columns?

Use the make_date() or make_datetime functions!

flats2 |>
  mutate(date = make_date(year, month, day)) |> 
  select(date, depth_m)

# A tibble: 672 × 2
   date       depth_m
   <date>       <dbl>
 1 0007-01-15   0.741
 2 0007-01-15   0.706
 3 0007-01-15   0.687
 4 0007-01-15   0.684
 5 0007-01-15   0.73 
 6 0007-01-15   0.683
 7 0007-01-15   0.664
 8 0007-01-15   0.659
 9 0007-01-15   0.724
10 0007-01-15   0.782
# ℹ 662 more rows
…
