Data transformation
…
How to use dplyr functions: example with select

We want to only include the lead_time column (lead_time= number of days between booking and arrival date):

hotels # original hotels data frame

# A tibble: 119,390 × 32
   hotel        is_canceled lead_time arrival_date_year arrival_date_month
   <chr>              <dbl>     <dbl>             <dbl> <chr>             
 1 Resort Hotel           0       342              2015 July              
 2 Resort Hotel           0       737              2015 July              
 3 Resort Hotel           0         7              2015 July              
 4 Resort Hotel           0        13              2015 July              
 5 Resort Hotel           0        14              2015 July              
 6 Resort Hotel           0        14              2015 July              
 7 Resort Hotel           0         0              2015 July              
 8 Resort Hotel           0         9              2015 July              
 9 Resort Hotel           1        85              2015 July              
10 Resort Hotel           1        75              2015 July              
# ℹ 119,380 more rows
# ℹ 27 more variables: arrival_date_week_number <dbl>,
#   arrival_date_day_of_month <dbl>, stays_in_weekend_nights <dbl>,
#   stays_in_week_nights <dbl>, adults <dbl>, children <dbl>, babies <dbl>,
#   meal <chr>, country <chr>, market_segment <chr>,
#   distribution_channel <chr>, is_repeated_guest <dbl>,
#   previous_cancellations <dbl>, previous_bookings_not_canceled <dbl>, …

select(hotels, lead_time) # select only lead_time

# A tibble: 119,390 × 1
   lead_time
       <dbl>
 1       342
 2       737
 3         7
 4        13
 5        14
 6        14
 7         0
 8         9
 9        85
10        75
# ℹ 119,380 more rows

FYI - commenting

In R, you can use the # for adding comments to your code. Any text following # will be printed as is, and won’t be run as R code. This is useful for leaving comments in your code and for temporarily disabling certain lines of code while debugging. 

hotels |> 
  # slice the first five rows   # this line is a comment
  # select(hotel) |>            # this one has code but doesn't run
  select(is_canceled)           # this line runs (no #)

# A tibble: 119,390 × 1
   is_canceled
         <dbl>
 1           0
 2           0
 3           0
 4           0
 5           0
 6           0
 7           0
 8           0
 9           1
10           1
# ℹ 119,380 more rows
…
Start with the function (a verb): select()

First argument: name of the data object we’re working with (hotels)

Second argument: variable we want to select, lead_time

How to use dplyr functions: example with select

select( 
  hotels, 
  lead_time
  )

# A tibble: 119,390 × 1
   lead_time
       <dbl>
 1       342
 2       737
 3         7
 4        13
 5        14
 6        14
 7         0
 8         9
 9        85
10        75
# ℹ 119,380 more rows

Result: data frame with 119390 rows and 1 column

dplyr functions always expect a data frame and always result in a data frame

Select multiple columns

View only the hotel type and lead_time:

select(hotels, hotel, lead_time)

# A tibble: 119,390 × 2
   hotel        lead_time
   <chr>            <dbl>
 1 Resort Hotel       342
 2 Resort Hotel       737
 3 Resort Hotel         7
 4 Resort Hotel        13
 5 Resort Hotel        14
 6 Resort Hotel        14
 7 Resort Hotel         0
 8 Resort Hotel         9
 9 Resort Hotel        85
10 Resort Hotel        75
# ℹ 119,380 more rows
…
Use the pipe operator |>

What is a pipe?

In programming, a pipe is a technique for passing information from one process to another.

Start with the hotels data frame and pass it to the select() function

Select the variables hotel and lead_time

hotels |> 
  select(hotel, lead_time) |> 
  arrange(desc(lead_time))

# A tibble: 119,390 × 2
   hotel        lead_time
   <chr>            <dbl>
 1 Resort Hotel       737
 2 Resort Hotel       709
 3 City Hotel         629
 4 City Hotel         629
 5 City Hotel         629
 6 City Hotel         629
 7 City Hotel         629
 8 City Hotel         629
 9 City Hotel         629
10 City Hotel         629
# ℹ 119,380 more rows
…
Writing it out using pipes give it a more natural (and easier to read) structure: 

find("keys") |> 
  start_car() |> 
  drive(to = "work") |> 
  park()

How does a pipe work?

Start with a data frame

hotels

# A tibble: 119,390 × 32
   hotel        is_canceled lead_time arrival_date_year arrival_date_month
   <chr>              <dbl>     <dbl>             <dbl> <chr>             
 1 Resort Hotel           0       342              2015 July              
 2 Resort Hotel           0       737              2015 July              
 3 Resort Hotel           0         7              2015 July              
 4 Resort Hotel           0        13              2015 July              
 5 Resort Hotel           0        14              2015 July              
 6 Resort Hotel           0        14              2015 July              
 7 Resort Hotel           0         0              2015 July              
 8 Resort Hotel           0         9              2015 July              
 9 Resort Hotel           1        85              2015 July              
10 Resort Hotel           1        75              2015 July              
# ℹ 119,380 more rows
# ℹ 27 more variables: arrival_date_week_number <dbl>,
#   arrival_date_day_of_month <dbl>, stays_in_weekend_nights <dbl>,
#   stays_in_week_nights <dbl>, adults <dbl>, children <dbl>, babies <dbl>,
#   meal <chr>, country <chr>, market_segment <chr>,
#   distribution_channel <chr>, is_repeated_guest <dbl>,
#   previous_cancellations <dbl>, previous_bookings_not_canceled <dbl>, …

How does a pipe work?

Pipe the data down to the next line. With dplyr functions, data is always the first argument. When we pipe, we are telling R to use the output of the previous line as the data argument. The data argument is now implicit.

hotels |>                     
  select(lead_time, is_canceled)

# A tibble: 119,390 × 2
   lead_time is_canceled
       <dbl>       <dbl>
 1       342           0
 2       737           0
 3         7           0
 4        13           0
 5        14           0
 6        14           0
 7         0           0
 8         9           0
 9        85           1
10        75           1
# ℹ 119,380 more rows
…
hotels |> 
  select(hotel, lead_time)

You might see %>%. This is also a pipe (from the magrittr package). R now has it’s own build-in pipe operator |> so that’s what most people use.

dplyr functions rundown

dplyr::select

select to exclude variables

hotels |>
  select(-agent) 

# A tibble: 119,390 × 31
   hotel        is_canceled lead_time arrival_date_year arrival_date_month
   <chr>              <dbl>     <dbl>             <dbl> <chr>             
 1 Resort Hotel           0       342              2015 July              
 2 Resort Hotel           0       737              2015 July              
 3 Resort Hotel           0         7              2015 July              
 4 Resort Hotel           0        13              2015 July              
 5 Resort Hotel           0        14              2015 July              
 6 Resort Hotel           0        14              2015 July              
 7 Resort Hotel           0         0              2015 July              
 8 Resort Hotel           0         9              2015 July              
 9 Resort Hotel           1        85              2015 July              
10 Resort Hotel           1        75              2015 July              
# ℹ 119,380 more rows
# ℹ 26 more variables: arrival_date_week_number <dbl>,
#   arrival_date_day_of_month <dbl>, stays_in_weekend_nights <dbl>,
#   stays_in_week_nights <dbl>, adults <dbl>, children <dbl>, babies <dbl>,
#   meal <chr>, country <chr>, market_segment <chr>,
#   distribution_channel <chr>, is_repeated_guest <dbl>,
#   previous_cancellations <dbl>, previous_bookings_not_canceled <dbl>, …

select a range of variables

hotels |>
  select(hotel:arrival_date_month) 

# A tibble: 119,390 × 5
   hotel        is_canceled lead_time arrival_date_year arrival_date_month
   <chr>              <dbl>     <dbl>             <dbl> <chr>             
 1 Resort Hotel           0       342              2015 July              
 2 Resort Hotel           0       737              2015 July              
 3 Resort Hotel           0         7              2015 July              
 4 Resort Hotel           0        13              2015 July              
 5 Resort Hotel           0        14              2015 July              
 6 Resort Hotel           0        14              2015 July              
 7 Resort Hotel           0         0              2015 July              
 8 Resort Hotel           0         9              2015 July              
 9 Resort Hotel           1        85              2015 July              
10 Resort Hotel           1        75              2015 July              
# ℹ 119,380 more rows

select variables with certain characteristics

hotels |>
  select(starts_with("arrival")) 

# A tibble: 119,390 × 4
   arrival_date_year arrival_date_month arrival_date_week_number
               <dbl> <chr>                                 <dbl>
 1              2015 July                                     27
 2              2015 July                                     27
 3              2015 July                                     27
 4              2015 July                                     27
 5              2015 July                                     27
 6              2015 July                                     27
 7              2015 July                                     27
 8              2015 July                                     27
 9              2015 July                                     27
10              2015 July                                     27
# ℹ 119,380 more rows
# ℹ 1 more variable: arrival_date_day_of_month <dbl>

select variables with certain characteristics

hotels |>
  select(ends_with("type")) 

# A tibble: 119,390 × 4
   reserved_room_type assigned_room_type deposit_type customer_type
   <chr>              <chr>              <chr>        <chr>        
 1 C                  C                  No Deposit   Transient    
 2 C                  C                  No Deposit   Transient    
 3 A                  C                  No Deposit   Transient    
 4 A                  A                  No Deposit   Transient    
 5 A                  A                  No Deposit   Transient    
 6 A                  A                  No Deposit   Transient    
 7 C                  C                  No Deposit   Transient    
 8 C                  C                  No Deposit   Transient    
 9 A                  A                  No Deposit   Transient    
10 D                  D                  No Deposit   Transient    
# ℹ 119,380 more rows
…
last_col(): Select last variable, possibly with an offset

matches(): Matches a regular expression (a sequence of symbols/characters expressing a string/pattern to be searched for within text)

dplyr::arrange

arrange in ascending / descending order

Ascending

hotels |>
  select(adults, children, babies) |>
  arrange(babies) 

# A tibble: 119,390 × 3
   adults children babies
    <dbl>    <dbl>  <dbl>
 1      2        0      0
 2      2        0      0
 3      1        0      0
 4      1        0      0
 5      2        0      0
 6      2        0      0
 7      2        0      0
 8      2        0      0
 9      2        0      0
10      2        0      0
# ℹ 119,380 more rows

Descending

hotels |>
  select(adults, children, babies) |>
  arrange(desc(babies)) 

# A tibble: 119,390 × 3
   adults children babies
    <dbl>    <dbl>  <dbl>
 1      2        0     10
 2      1        0      9
 3      2        0      2
 4      2        0      2
 5      2        0      2
 6      2        0      2
 7      2        0      2
 8      2        0      2
 9      2        0      2
10      2        0      2
# ℹ 119,380 more rows
…
dplyr::filter

filter to select a subset of rows

# bookings in City Hotels
hotels |>
  filter(hotel == "City Hotel")

# A tibble: 79,330 × 32
   hotel      is_canceled lead_time arrival_date_year arrival_date_month
   <chr>            <dbl>     <dbl>             <dbl> <chr>             
 1 City Hotel           0         6              2015 July              
 2 City Hotel           1        88              2015 July              
 3 City Hotel           1        65              2015 July              
 4 City Hotel           1        92              2015 July              
 5 City Hotel           1       100              2015 July              
 6 City Hotel           1        79              2015 July              
 7 City Hotel           0         3              2015 July              
 8 City Hotel           1        63              2015 July              
 9 City Hotel           1        62              2015 July              
10 City Hotel           1        62              2015 July              
# ℹ 79,320 more rows
# ℹ 27 more variables: arrival_date_week_number <dbl>,
#   arrival_date_day_of_month <dbl>, stays_in_weekend_nights <dbl>,
#   stays_in_week_nights <dbl>, adults <dbl>, children <dbl>, babies <dbl>,
#   meal <chr>, country <chr>, market_segment <chr>,
#   distribution_channel <chr>, is_repeated_guest <dbl>,
#   previous_cancellations <dbl>, previous_bookings_not_canceled <dbl>, …

filter for many conditions at once

hotels |>
  filter( 
    adults == 0,     
    children >= 1    
    ) |> 
  select(adults, babies, children)

# A tibble: 223 × 3
   adults babies children
    <dbl>  <dbl>    <dbl>
 1      0      0        3
 2      0      0        2
 3      0      0        2
 4      0      0        2
 5      0      0        2
 6      0      0        3
 7      0      1        2
 8      0      0        2
 9      0      0        2
10      0      0        2
# ℹ 213 more rows
…
Try it: ae-04 5-6

dplyr::mutate

mutate to add a new variable

mutate creates a new column based on whatever arguments you provide, often using other existing colunns in the dataframe.

hotels |>
  mutate(little_ones = children + babies) |> 
  select(children, babies, little_ones) |>
  arrange(desc(little_ones))

# A tibble: 119,390 × 3
   children babies little_ones
      <dbl>  <dbl>       <dbl>
 1       10      0          10
 2        0     10          10
 3        0      9           9
 4        2      1           3
 5        2      1           3
 6        2      1           3
 7        3      0           3
 8        2      1           3
 9        2      1           3
10        3      0           3
# ℹ 119,380 more rows
…
