Data transformation
…
How to use dplyr functions: example with select

We want to only include the days_to_high_point column (days_to_high_point= number of days between expedition start date and summit date):

exped # original exped data frame

# A tibble: 259 × 8
   expid     year pkname season_factor highpoint  rope o2used days_to_high_point
   <chr>    <dbl> <chr>  <chr>             <dbl> <dbl> <lgl>               <dbl>
 1 EVER201…  2020 Evere… Spring             8849     0 TRUE                   35
 2 AMAD203…  2020 Ama D… Autumn             6814     0 FALSE                   1
 3 AMAD203…  2020 Ama D… Autumn             6814     0 FALSE                   9
 4 AMAD203…  2020 Ama D… Autumn             6814     0 FALSE                  16
 5 AMAD203…  2020 Ama D… Autumn             6814     0 FALSE                   3
 6 AMAD203…  2020 Ama D… Autumn             6814     0 FALSE                  10
 7 AMAD204…  2020 Ama D… Winter             6814     0 FALSE                  13
 8 CHOY203…  2020 Cho O… Autumn             8188     0 TRUE                   16
 9 GYLZ203…  2020 Gyalz… Autumn             6151     0 FALSE                   2
10 HIML203…  2020 Himlu… Autumn             7126     0 FALSE                  14
# ℹ 249 more rows

select(exped, days_to_high_point) # select only days_to_summit

# A tibble: 259 × 1
   days_to_high_point
                <dbl>
 1                 35
 2                  1
 3                  9
 4                 16
 5                  3
 6                 10
 7                 13
 8                 16
 9                  2
10                 14
# ℹ 249 more rows
…
Start with the function (a verb): select()

First argument: name of the data object we’re working with (exped)

Second argument: variable we want to select, days_to_high_point

How to use dplyr functions: example with select

select( 
  exped, 
  days_to_high_point
  )

# A tibble: 259 × 1
   days_to_high_point
                <dbl>
 1                 35
 2                  1
 3                  9
 4                 16
 5                  3
 6                 10
 7                 13
 8                 16
 9                  2
10                 14
# ℹ 249 more rows

Result: data frame with 259 rows and 1 column

dplyr functions always expect a data frame and always result in a data frame

Select multiple columns

View only the pkname and days_to_high_point variables:

select(exped, pkname, days_to_high_point)

# A tibble: 259 × 2
   pkname        days_to_high_point
   <chr>                      <dbl>
 1 Everest                       35
 2 Ama Dablam                     1
 3 Ama Dablam                     9
 4 Ama Dablam                    16
 5 Ama Dablam                     3
 6 Ama Dablam                    10
 7 Ama Dablam                    13
 8 Cho Oyu                       16
 9 Gyalzen Peak                   2
10 Himlung Himal                 14
# ℹ 249 more rows
…
Use the pipe operator |>

What is a pipe?

In programming, a pipe is a technique for passing information from one process to another.

Start with the exped data frame and pass it to the select() function

Select the variables exped and days_to_high_point

exped |> 
  select(pkname, days_to_high_point) |> 
  arrange(desc(days_to_high_point))

# A tibble: 259 × 2
   pkname        days_to_high_point
   <chr>                      <dbl>
 1 Everest                       52
 2 Everest                       51
 3 Lhotse                        48
 4 Lhotse                        48
 5 Everest                       47
 6 Everest                       47
 7 Everest                       46
 8 Everest                       44
 9 Lhotse                        44
10 Annapurna III                 44
# ℹ 249 more rows
…
Writing it out using pipes give it a more natural (and easier to read) structure: 

find("keys") |> 
  start_car() |> 
  drive(to = "work") |> 
  park()

How does a pipe work?

Start with a data frame

exped

# A tibble: 259 × 8
   expid     year pkname season_factor highpoint  rope o2used days_to_high_point
   <chr>    <dbl> <chr>  <chr>             <dbl> <dbl> <lgl>               <dbl>
 1 EVER201…  2020 Evere… Spring             8849     0 TRUE                   35
 2 AMAD203…  2020 Ama D… Autumn             6814     0 FALSE                   1
 3 AMAD203…  2020 Ama D… Autumn             6814     0 FALSE                   9
 4 AMAD203…  2020 Ama D… Autumn             6814     0 FALSE                  16
 5 AMAD203…  2020 Ama D… Autumn             6814     0 FALSE                   3
 6 AMAD203…  2020 Ama D… Autumn             6814     0 FALSE                  10
 7 AMAD204…  2020 Ama D… Winter             6814     0 FALSE                  13
 8 CHOY203…  2020 Cho O… Autumn             8188     0 TRUE                   16
 9 GYLZ203…  2020 Gyalz… Autumn             6151     0 FALSE                   2
10 HIML203…  2020 Himlu… Autumn             7126     0 FALSE                  14
# ℹ 249 more rows

How does a pipe work?

Pipe the data down to the next line. With dplyr functions, data is always the first argument. When we pipe, we are telling R to use the output of the previous line as the data argument. The data argument is now implicit.

exped |>                     
  select(pkname, days_to_high_point)

# A tibble: 259 × 2
   pkname        days_to_high_point
   <chr>                      <dbl>
 1 Everest                       35
 2 Ama Dablam                     1
 3 Ama Dablam                     9
 4 Ama Dablam                    16
 5 Ama Dablam                     3
 6 Ama Dablam                    10
 7 Ama Dablam                    13
 8 Cho Oyu                       16
 9 Gyalzen Peak                   2
10 Himlung Himal                 14
# ℹ 249 more rows
…
exped |>
  select(pkname, days_to_high_point)

You might see %>%. This is also a pipe (from the magrittr package). R now has it’s own build-in pipe operator |> so that’s what most people use.

dplyr functions rundown

dplyr::select

select to exclude variables

exped |>
  select(-o2used) 

# A tibble: 259 × 7
   expid      year pkname       season_factor highpoint  rope days_to_high_point
   <chr>     <dbl> <chr>        <chr>             <dbl> <dbl>              <dbl>
 1 EVER20103  2020 Everest      Spring             8849     0                 35
 2 AMAD20301  2020 Ama Dablam   Autumn             6814     0                  1
 3 AMAD20302  2020 Ama Dablam   Autumn             6814     0                  9
 4 AMAD20303  2020 Ama Dablam   Autumn             6814     0                 16
 5 AMAD20305  2020 Ama Dablam   Autumn             6814     0                  3
 6 AMAD20307  2020 Ama Dablam   Autumn             6814     0                 10
 7 AMAD20401  2020 Ama Dablam   Winter             6814     0                 13
 8 CHOY20301  2020 Cho Oyu      Autumn             8188     0                 16
 9 GYLZ20301  2020 Gyalzen Peak Autumn             6151     0                  2
10 HIML20302  2020 Himlung Him… Autumn             7126     0                 14
# ℹ 249 more rows

select a range of variables

exped |>
  select(expid:pkname) 

# A tibble: 259 × 3
   expid      year pkname       
   <chr>     <dbl> <chr>        
 1 EVER20103  2020 Everest      
 2 AMAD20301  2020 Ama Dablam   
 3 AMAD20302  2020 Ama Dablam   
 4 AMAD20303  2020 Ama Dablam   
 5 AMAD20305  2020 Ama Dablam   
 6 AMAD20307  2020 Ama Dablam   
 7 AMAD20401  2020 Ama Dablam   
 8 CHOY20301  2020 Cho Oyu      
 9 GYLZ20301  2020 Gyalzen Peak 
10 HIML20302  2020 Himlung Himal
# ℹ 249 more rows

select variables with certain characteristics

exped |>
  select(starts_with("pk")) 

# A tibble: 259 × 1
   pkname       
   <chr>        
 1 Everest      
 2 Ama Dablam   
 3 Ama Dablam   
 4 Ama Dablam   
 5 Ama Dablam   
 6 Ama Dablam   
 7 Ama Dablam   
 8 Cho Oyu      
 9 Gyalzen Peak 
10 Himlung Himal
# ℹ 249 more rows

select variables with certain characteristics

exped |>
  select(ends_with("id")) 

# A tibble: 259 × 1
   expid    
   <chr>    
 1 EVER20103
 2 AMAD20301
 3 AMAD20302
 4 AMAD20303
 5 AMAD20305
 6 AMAD20307
 7 AMAD20401
 8 CHOY20301
 9 GYLZ20301
10 HIML20302
# ℹ 249 more rows
…
last_col(): Select last variable, possibly with an offset

matches(): Matches a regular expression (a sequence of symbols/characters expressing a string/pattern to be searched for within text)

dplyr::arrange

arrange in ascending / descending order

Ascending

exped |>
  select(pkname, year, highpoint) |>
  arrange(year) 

# A tibble: 259 × 3
   pkname         year highpoint
   <chr>         <dbl>     <dbl>
 1 Everest        2020      8849
 2 Ama Dablam     2020      6814
 3 Ama Dablam     2020      6814
 4 Ama Dablam     2020      6814
 5 Ama Dablam     2020      6814
 6 Ama Dablam     2020      6814
 7 Ama Dablam     2020      6814
 8 Cho Oyu        2020      8188
 9 Gyalzen Peak   2020      6151
10 Himlung Himal  2020      7126
# ℹ 249 more rows

Descending

exped |>
  select(pkname, year, highpoint) |>
  arrange(desc(year))  

# A tibble: 259 × 3
   pkname      year highpoint
   <chr>      <dbl>     <dbl>
 1 Ama Dablam  2024      6814
 2 Bhrikuti    2024      6476
 3 Cho Oyu     2024      8188
 4 Everest     2024      8849
 5 Everest     2024      8849
 6 Everest     2024      8849
 7 Everest     2024      8849
 8 Everest     2024      8849
 9 Everest     2024      8849
10 Everest     2024      8849
# ℹ 249 more rows
…
dplyr::filter

filter to select a subset of rows

# Expeditions on Lhotse
exped |>
  filter(pkname == "Lhotse")

# A tibble: 26 × 8
   expid     year pkname season_factor highpoint  rope o2used days_to_high_point
   <chr>    <dbl> <chr>  <chr>             <dbl> <dbl> <lgl>               <dbl>
 1 LHOT211…  2021 Lhotse Spring             8516     0 TRUE                   44
 2 LHOT211…  2021 Lhotse Spring             8516     0 TRUE                   40
 3 LHOT211…  2021 Lhotse Spring             8516     0 TRUE                   25
 4 LHOT211…  2021 Lhotse Spring             8516     0 TRUE                   27
 5 LHOT211…  2021 Lhotse Spring             8516     0 TRUE                   36
 6 LHOT211…  2021 Lhotse Spring             8516     0 TRUE                   33
 7 LHOT211…  2021 Lhotse Spring             8516     0 TRUE                   39
 8 LHOT211…  2021 Lhotse Spring             8516     0 TRUE                   28
 9 LHOT211…  2021 Lhotse Spring             8516     0 TRUE                   30
10 LHOT211…  2021 Lhotse Spring             8516     0 TRUE                   38
# ℹ 16 more rows
…
Before you try to push any changes, don’t forget to use gitcreds::gitcreds_set() to set your PAT.

Before pushing, make sure to render, stage, commit and then push to GitHub

dplyr::distinct and dplyr::count

distinct to filter for unique rows

Get unique values of the pkname variable and arrange in alphabetical order.

exped |> 
  distinct(pkname) |> 
  arrange(pkname)

# A tibble: 58 × 1
   pkname       
   <chr>        
 1 Ama Dablam   
 2 Amphu Gyabjen
 3 Annapurna I  
 4 Annapurna III
 5 Annapurna IV 
 6 Baruntse     
 7 Bhrikuti     
 8 Chamlang     
 9 Chandi Himal 
10 Cho Oyu      
# ℹ 48 more rows

distinct to filter for unique rows

Get unique combinations of the pkname and season_factor variables and arrange in alphabetical order by pkname first and season_factor second.

exped |> 
  distinct(pkname, season_factor) |>
  arrange(pkname, season_factor)

# A tibble: 69 × 2
   pkname        season_factor
   <chr>         <chr>        
 1 Ama Dablam    Autumn       
 2 Ama Dablam    Spring       
 3 Ama Dablam    Winter       
 4 Amphu Gyabjen Spring       
 5 Annapurna I   Spring       
 6 Annapurna III Autumn       
 7 Annapurna IV  Autumn       
 8 Baruntse      Autumn       
 9 Baruntse      Spring       
10 Bhrikuti      Spring       
# ℹ 59 more rows

count to create frequency tables

Alphabetical order by default

exped |>
  count(pkname) 

# A tibble: 58 × 2
   pkname            n
   <chr>         <int>
 1 Ama Dablam       33
 2 Amphu Gyabjen     1
 3 Annapurna I      11
 4 Annapurna III     1
 5 Annapurna IV      2
 6 Baruntse          2
 7 Bhrikuti          1
 8 Chamlang          1
 9 Chandi Himal      1
10 Cho Oyu           4
# ℹ 48 more rows

Descending order by frequency

exped |>
  count(pkname, sort = TRUE) 

# A tibble: 58 × 2
   pkname            n
   <chr>         <int>
 1 Everest          80
 2 Ama Dablam       33
 3 Lhotse           26
 4 Himlung Himal    17
 5 Annapurna I      11
 6 Manaslu          10
 7 Kangchenjunga     9
 8 Dhaulagiri I      6
 9 Cho Oyu           4
10 Makalu            3
# ℹ 48 more rows

count for multiple variables

Get the number of observations for each unique combination of pkname and season_factor

exped |>
  count(pkname, season_factor) 

# A tibble: 69 × 3
   pkname        season_factor     n
   <chr>         <chr>         <int>
 1 Ama Dablam    Autumn           27
 2 Ama Dablam    Spring            5
 3 Ama Dablam    Winter            1
 4 Amphu Gyabjen Spring            1
 5 Annapurna I   Spring           11
 6 Annapurna III Autumn            1
 7 Annapurna IV  Autumn            2
 8 Baruntse      Autumn            1
 9 Baruntse      Spring            1
10 Bhrikuti      Spring            1
# ℹ 59 more rows

Try it: ae-04 5-6

dplyr::mutate

mutate to add a new variable

mutate creates a new column based on whatever arguments you provide, often using other existing colunns in the dataframe.

exped |>
  mutate(weeks_to_high_point = days_to_high_point / 7) |> 
  select(expid, days_to_high_point, weeks_to_high_point) |>
  arrange(desc(weeks_to_high_point))

# A tibble: 259 × 3
   expid     days_to_high_point weeks_to_high_point
   <chr>                  <dbl>               <dbl>
 1 EVER21121                 52                7.43
 2 EVER21103                 51                7.29
 3 LHOT23103                 48                6.86
 4 LHOT23119                 48                6.86
 5 EVER21124                 47                6.71
 6 EVER23105                 47                6.71
 7 EVER21133                 46                6.57
 8 EVER21108                 44                6.29
 9 LHOT21102                 44                6.29
10 ANN321301                 44                6.29
# ℹ 249 more rows
…
summarise() changes the data frame entirely: it collapses rows down to a single summary statistic, and removes all columns that are not included in the calculation.

group_by for grouped summary calculations

Calculate mean average days to high point for all expeditions for each peak

exped |>
  group_by(pkname) |> 
  summarise(mean_days = mean(days_to_high_point))

# A tibble: 58 × 2
   pkname        mean_days
   <chr>             <dbl>
 1 Ama Dablam         8.42
 2 Amphu Gyabjen      9   
 3 Annapurna I       22.4 
 4 Annapurna III     44   
 5 Annapurna IV      23   
 6 Baruntse           4.5 
 7 Bhrikuti           6   
 8 Chamlang           8   
 9 Chandi Himal       5   
10 Cho Oyu           16.5 
# ℹ 48 more rows
…
