More models with multiple predictors
…
```r
pp <- read_csv(
  "data/paris-paintings.csv",
  na = c("n/a", "", "NA")
) %>%
  mutate(log_price = log(price),
         artistliving = case_when(artistliving == 0 ~ "no",
                                  TRUE ~ "yes"))

print(pp, n = 5)
```

```
## # A tibble: 3,393 × 62
##   name   sale  lot   posit…¹ dealer  year origi…² origi…³ schoo…⁴
##   <chr>  <chr> <chr>   <dbl> <chr>  <dbl> <chr>   <chr>   <chr>  
## 1 L1764… L1764 2      0.0328 L       1764 F       O       F      
## 2 L1764… L1764 3      0.0492 L       1764 I       O       I      
## 3 L1764… L1764 4      0.0656 L       1764 X       O       D/FL   
## 4 L1764… L1764 5      0.0820 L       1764 F       O       F      
## 5 L1764… L1764 5      0.0820 L       1764 F       O       F      
## # … with 3,388 more rows, 53 more variables: diff_origin <dbl>,
## #   logprice <dbl>, price <dbl>, count <dbl>, subject <chr>,
## #   authorstandard <chr>, artistliving <chr>, authorstyle <chr>,
## #   author <chr>, winningbidder <chr>, winningbiddertype <chr>,
## #   endbuyer <chr>, Interm <dbl>, type_intermed <chr>,
## #   Height_in <dbl>, Width_in <dbl>, Surface_Rect <dbl>,
## #   Diam_in <dbl>, Surface_Rnd <dbl>, Shape <chr>, …
```
…
