Tying up loose ends
…
<img src="img/rmd-3.png" width="60%" style="display: block; margin: auto;" />

---

### Use `knitr::kable` to print tables

But only print tables if it's important for the reader to have that information. For example, printing a raw, unformatted data table is helpful to you as the data analyst, but not the reader. Remove this from your code before finalizing your report.

```r
penguins %>%
  filter(species == "Adelie")
```

```
## # A tibble: 152 × 8
##   species island    bill_le…¹ bill_…² flipp…³ body_…⁴ sex    year
##   <fct>   <fct>         <dbl>   <dbl>   <int>   <int> <fct> <int>
## 1 Adelie  Torgersen      39.1    18.7     181    3750 male   2007
## 2 Adelie  Torgersen      39.5    17.4     186    3800 fema…  2007
## 3 Adelie  Torgersen      40.3    18       195    3250 fema…  2007
## 4 Adelie  Torgersen      NA      NA        NA      NA <NA>   2007
## 5 Adelie  Torgersen      36.7    19.3     193    3450 fema…  2007
## 6 Adelie  Torgersen      39.3    20.6     190    3650 male   2007
## # … with 146 more rows, and abbreviated variable names
## #   ¹​bill_length_mm, ²​bill_depth_mm, ³​flipper_length_mm,
## #   ⁴​body_mass_g
```
…
